^C:\DOWNLOADS\COCOS2D-JS-V3.5\BUILD\DEBUG.WIN32\LIBCOCOS2D.LIB|C:\DOWNLOADS\COCOS2D-JS-V3.5\BUILD\DEBUG.WIN32\LIBJSBINDINGS.LIB|C:\DOWNLOADS\COCOS2D-JS-V3.5\SAMPLES\JS-MOONWARRIORS\PROJECT\PROJ.WIN32\DEBUG.WIN32\APPDELEGATE.OBJ|C:\DOWNLOADS\COCOS2D-JS-V3.5\SAMPLES\JS-MOONWARRIORS\PROJECT\PROJ.WIN32\DEBUG.WIN32\JS-MOONWARRIORS.RES|C:\DOWNLOADS\COCOS2D-JS-V3.5\SAMPLES\JS-MOONWARRIORS\PROJECT\PROJ.WIN32\DEBUG.WIN32\MAIN.OBJ
C:\DOWNLOADS\COCOS2D-JS-V3.5\BUILD\DEBUG.WIN32\LIBCURL_IMP.LIB
C:\DOWNLOADS\COCOS2D-JS-V3.5\BUILD\DEBUG.WIN32\JS-MOONWARRIORS\MOZJS-33.LIB
C:\PROGRAM FILES (X86)\MICROSOFT SDKS\WINDOWS\V7.1A\LIB\WS2_32.LIB
C:\DOWNLOADS\COCOS2D-JS-V3.5\BUILD\DEBUG.WIN32\SQLITE3.LIB
C:\PROGRAM FILES (X86)\MICROSOFT SDKS\WINDOWS\V7.1A\LIB\OPENGL32.LIB
C:\DOWNLOADS\COCOS2D-JS-V3.5\BUILD\DEBUG.WIN32\GLEW32.LIB
C:\DOWNLOADS\COCOS2D-JS-V3.5\BUILD\DEBUG.WIN32\LIBZLIB.LIB
C:\DOWNLOADS\COCOS2D-JS-V3.5\BUILD\DEBUG.WIN32\LIBPNG.LIB
C:\DOWNLOADS\COCOS2D-JS-V3.5\BUILD\DEBUG.WIN32\LIBJPEG.LIB
C:\DOWNLOADS\COCOS2D-JS-V3.5\BUILD\DEBUG.WIN32\LIBTIFF.LIB
C:\DOWNLOADS\COCOS2D-JS-V3.5\BUILD\DEBUG.WIN32\LIBWEBP.LIB
C:\DOWNLOADS\COCOS2D-JS-V3.5\BUILD\DEBUG.WIN32\LIBICONV.LIB
C:\DOWNLOADS\COCOS2D-JS-V3.5\BUILD\DEBUG.WIN32\GLFW3.LIB
C:\DOWNLOADS\COCOS2D-JS-V3.5\BUILD\DEBUG.WIN32\FREETYPE250.LIB
C:\PROGRAM FILES (X86)\MICROSOFT SDKS\WINDOWS\V7.1A\LIB\WINMM.LIB
C:\DOWNLOADS\COCOS2D-JS-V3.5\BUILD\DEBUG.WIN32\LIBCHIPMUNK.LIB
C:\DOWNLOADS\COCOS2D-JS-V3.5\BUILD\DEBUG.WIN32\LIBBOX2D.LIB
C:\DOWNLOADS\COCOS2D-JS-V3.5\BUILD\DEBUG.WIN32\LIBSPINE.LIB
C:\PROGRAM FILES (X86)\MICROSOFT SDKS\WINDOWS\V7.1A\LIB\KERNEL32.LIB
C:\PROGRAM FILES (X86)\MICROSOFT SDKS\WINDOWS\V7.1A\LIB\USER32.LIB
C:\PROGRAM FILES (X86)\MICROSOFT SDKS\WINDOWS\V7.1A\LIB\GDI32.LIB
C:\PROGRAM FILES (X86)\MICROSOFT SDKS\WINDOWS\V7.1A\LIB\WINSPOOL.LIB
C:\PROGRAM FILES (X86)\MICROSOFT SDKS\WINDOWS\V7.1A\LIB\COMDLG32.LIB
C:\PROGRAM FILES (X86)\MICROSOFT SDKS\WINDOWS\V7.1A\LIB\ADVAPI32.LIB
C:\PROGRAM FILES (X86)\MICROSOFT SDKS\WINDOWS\V7.1A\LIB\SHELL32.LIB
C:\PROGRAM FILES (X86)\MICROSOFT SDKS\WINDOWS\V7.1A\LIB\OLE32.LIB
C:\PROGRAM FILES (X86)\MICROSOFT SDKS\WINDOWS\V7.1A\LIB\OLEAUT32.LIB
C:\PROGRAM FILES (X86)\MICROSOFT SDKS\WINDOWS\V7.1A\LIB\UUID.LIB
C:\PROGRAM FILES (X86)\MICROSOFT SDKS\WINDOWS\V7.1A\LIB\ODBC32.LIB
C:\PROGRAM FILES (X86)\MICROSOFT SDKS\WINDOWS\V7.1A\LIB\ODBCCP32.LIB
C:\DOWNLOADS\COCOS2D-JS-V3.5\SAMPLES\JS-MOONWARRIORS\PROJECT\PROJ.WIN32\DEBUG.WIN32\JS-MOONWARRIORS.RES
C:\DOWNLOADS\COCOS2D-JS-V3.5\SAMPLES\JS-MOONWARRIORS\PROJECT\PROJ.WIN32\DEBUG.WIN32\MAIN.OBJ
C:\DOWNLOADS\COCOS2D-JS-V3.5\SAMPLES\JS-MOONWARRIORS\PROJECT\PROJ.WIN32\DEBUG.WIN32\APPDELEGATE.OBJ
C:\DOWNLOADS\COCOS2D-JS-V3.5\BUILD\DEBUG.WIN32\LIBCOCOS2D.LIB
C:\DOWNLOADS\COCOS2D-JS-V3.5\BUILD\DEBUG.WIN32\LIBJSBINDINGS.LIB
C:\WINDOWS\GLOBALIZATION\SORTING\SORTDEFAULT.NLS
C:\PROGRAM FILES (X86)\MICROSOFT VISUAL STUDIO 12.0\VC\BIN\1033\LINKUI.DLL
C:\PROGRAM FILES (X86)\MICROSOFT VISUAL STUDIO 12.0\VC\LIB\MSVCPRTD.LIB
C:\PROGRAM FILES (X86)\MICROSOFT VISUAL STUDIO 12.0\VC\LIB\MSVCRTD.LIB
C:\PROGRAM FILES (X86)\MICROSOFT VISUAL STUDIO 12.0\VC\LIB\OLDNAMES.LIB
C:\WINDOWS\SYSTEM32\TZRES.DLL
C:\PROGRAM FILES (X86)\MICROSOFT SDKS\WINDOWS\V7.1A\BIN\RC.EXE
C:\PROGRAM FILES (X86)\MICROSOFT VISUAL STUDIO 12.0\VC\BIN\CVTRES.EXE
