^C:\DOWNLOADS\COCOS2D-JS-V3.5\BUILD\DEBUG.WIN32\LIBCOCOS2D.LIB|C:\DOWNLOADS\COCOS2D-JS-V3.5\BUILD\DEBUG.WIN32\LIBJSBINDINGS.LIB|C:\DOWNLOADS\COCOS2D-JS-V3.5\SAMPLES\JS-MOONWARRIORS\PROJECT\PROJ.WIN32\DEBUG.WIN32\APPDELEGATE.OBJ|C:\DOWNLOADS\COCOS2D-JS-V3.5\SAMPLES\JS-MOONWARRIORS\PROJECT\PROJ.WIN32\DEBUG.WIN32\JS-MOONWARRIORS.RES|C:\DOWNLOADS\COCOS2D-JS-V3.5\SAMPLES\JS-MOONWARRIORS\PROJECT\PROJ.WIN32\DEBUG.WIN32\MAIN.OBJ
C:\DOWNLOADS\COCOS2D-JS-V3.5\BUILD\DEBUG.WIN32\JS-MOONWARRIORS\JS-MOONWARRIORS.EXE
C:\DOWNLOADS\COCOS2D-JS-V3.5\BUILD\DEBUG.WIN32\JS-MOONWARRIORS\JS-MOONWARRIORS.PDB
